{
	"prefix" : "-",
	"name" : "Loxete",
	"avatar" : "https://cdn.discordapp.com/avatars/863808330651926579/6a4c6e8697293da41f4d18b541c6f68b.png",
	"loxId" : "196705465885786112",
	"pingsChan" : "864253898843881522"
}
